x,y,label
10,5,1
11,5,1
12,5,1
13,5,1
14,5,1
15,5,1
16,5,1
17,5,1
18,5,1
19,5,1
20,5,1
10,6,1
11,6,1
12,6,1
13,6,1
14,6,1
15,6,1
16,6,1
17,6,1
18,6,1
19,6,1
20,6,1
10,7,1
11,7,1
12,7,1
13,7,1
14,7,1
15,7,1
16,7,1
17,7,1
18,7,1
19,7,1
20,7,1
10,8,1
11,8,1
12,8,1
13,8,1
14,8,1
15,8,1
16,8,1
17,8,1
18,8,1
19,8,1
20,8,1
10,8.2,2
10.5,8.2,2
11,8.2,2
11.5,8.2,2
12,8.2,2
12.5,8.2,2
13,8.2,2
13.5,8.2,2
14,8.2,2
14.5,8.2,2
15,8.2,2
10,8.4,2
10.5,8.4,2
11,8.4,2
11.5,8.4,2
12,8.4,2
12.5,8.4,2
13,8.4,2
13.5,8.4,2
14,8.4,2
14.5,8.4,2
15,8.4,2
10,8.6,2
10.5,8.6,2
11,8.6,2
11.5,8.6,2
12,8.6,2
12.5,8.6,2
13,8.6,2
13.5,8.6,2
14,8.6,2
14.5,8.6,2
15,8.6,2
10,8.8,2
10.5,8.8,2
11,8.8,2
11.5,8.8,2
12,8.8,2
12.5,8.8,2
13,8.8,2
13.5,8.8,2
14,8.8,2
14.5,8.8,2
15,8.8,2
10,9,2
10.5,9,2
11,9,2
11.5,9,2
12,9,2
12.5,9,2
13,9,2
13.5,9,2
14,9,2
14.5,9,2
15,9,2
15.5,8.5,3
16,8.5,3
16.5,8.5,3
17,8.5,3
17.5,8.5,3
18,8.5,3
18.5,8.5,3
19,8.5,3
19.5,8.5,3
20,8.5,3
15.5,9,3
16,9,3
16.5,9,3
17,9,3
17.5,9,3
18,9,3
18.5,9,3
19,9,3
19.5,9,3
20,9,3
